\relax 
\@writefile{lof}{\contentsline {figure}{\numberline {1}{\ignorespaces Experiment setup}}{3}\protected@file@percent }
\@writefile{lot}{\contentsline {table}{\numberline {1}{\ignorespaces Data from experiment}}{5}\protected@file@percent }
\@writefile{lot}{\contentsline {table}{\numberline {2}{\ignorespaces Calculated energy content from experiment}}{5}\protected@file@percent }
\@writefile{lot}{\contentsline {table}{\numberline {3}{\ignorespaces Analytical data}}{5}\protected@file@percent }
