\relax 
\@writefile{toc}{\contentsline {section}{\numberline {1}Discussion}{2}}
\@writefile{toc}{\contentsline {section}{\numberline {2}Data}{4}}
\@writefile{toc}{\contentsline {subsection}{\numberline {2.1}Table 1}{4}}
\@writefile{toc}{\contentsline {subsection}{\numberline {2.2}Table 2}{4}}
\@writefile{toc}{\contentsline {section}{\numberline {3}References}{5}}
